com\bbva\hackathon\BeanContexto.class
com\bbva\hackathon\data\TrackingMongo.class
com\bbva\hackathon\BeanPersonalizacion.class
com\bbva\hackathon\Tracking.class
com\bbva\hackathon\data\TrackingRepository.class
com\bbva\hackathon\TrackingMongoController.class
com\bbva\hackathon\TrackingMongoApplication.class
