C:\Hackaton\src\main\java\com\bbva\hackathon\data\TrackingRepository.java
C:\Hackaton\src\main\java\com\bbva\hackathon\data\TrackingMongo.java
C:\Hackaton\src\main\java\com\bbva\hackathon\Tracking.java
C:\Hackaton\src\main\java\com\bbva\hackathon\TrackingMongoController.java
C:\Hackaton\src\main\java\com\bbva\hackathon\BeanContexto.java
C:\Hackaton\src\main\java\com\bbva\hackathon\BeanPersonalizacion.java
C:\Hackaton\src\main\java\com\bbva\hackathon\TrackingMongoApplication.java
